Working with Twitter Data in R
…
---
## Data Collection &mdash; Notes &mdash; `rate_limit`

Check you remaining rate limits, for all operations

```r
rate_limit()
```

.out-t[

```
# A tibble: 261 x 7
   query                   limit remaining reset      reset_at            timestamp           app           
   <chr>                   <int>     <int> <drtn>     <dttm>              <dttm>              <chr>         
 1 lists/list                 15        15 14.78 mins 2022-03-06 10:35:45 2022-03-06 10:20:59 rstats2twitter
 2 lists/:id/tweets&GET      900       900 14.78 mins 2022-03-06 10:35:45 2022-03-06 10:20:59 rstats2twitter
 3 lists/:id/followers&GET   180       180 14.78 mins 2022-03-06 10:35:45 2022-03-06 10:20:59 rstats2twitter
 4 lists/memberships          75        75 14.78 mins 2022-03-06 10:35:45 2022-03-06 10:20:59 rstats2twitter
 5 lists/:id&DELETE          300       300 14.78 mins 2022-03-06 10:35:45 2022-03-06 10:20:59 rstats2twitter
 6 lists/subscriptions        15        15 14.78 mins 2022-03-06 10:35:45 2022-03-06 10:20:59 rstats2twitter
 7 lists/members             900       900 14.78 mins 2022-03-06 10:35:45 2022-03-06 10:20:59 rstats2twitter
 8 lists/:id&GET              75        75 14.78 mins 2022-03-06 10:35:45 2022-03-06 10:20:59 rstats2twitter
 9 lists/subscribers/show     15        15 14.78 mins 2022-03-06 10:35:45 2022-03-06 10:20:59 rstats2twitter
10 lists/:id&PUT             300       300 14.78 mins 2022-03-06 10:35:45 2022-03-06 10:20:59 rstats2twitter
# ... with 251 more rows
```
…
